<?xml version="1.0" encoding="utf-8"?>
<!-- Generator: Adobe Illustrator 18.0.0, SVG Export Plug-In . SVG Version: 6.00 Build 0)  -->
<!DOCTYPE svg PUBLIC "-//W3C//DTD SVG 1.1//EN" "http://www.w3.org/Graphics/SVG/1.1/DTD/svg11.dtd">
<svg version="1.1" id="Layer_1" xmlns="http://www.w3.org/2000/svg" xmlns:xlink="http://www.w3.org/1999/xlink" x="0px" y="0px"
	 viewBox="-0.9 0 86.8 85" enable-background="new -0.9 0 86.8 85" xml:space="preserve">
<g id="Find_event" transform="translate(315.000000, 0.576752)">
	<path id="Shape" fill="#5642AB" d="M-306.7,4v2.8h-5.5c-2,0-3.7,1.7-3.7,3.7v61c0,2,1.7,3.7,3.7,3.7h54.4c-1.2-1.1-2.2-1.7-2.9-3.1
		h-51.9V24.9h71.4V53c1.4,0.7,1.9,1.5,3,2.6V10.5c0-2-1.7-3.7-3.7-3.7h-5.5V4c0-2.5-2.1-4.6-4.6-4.6s-4.6,2.1-4.6,4.6v2.8h-7.4V4
		c0-2.5-2.1-4.6-4.6-4.6c-2.5,0-4.6,2.1-4.6,4.6v2.8h-7.4V4c0-2.5-2.1-4.6-4.6-4.6c-2.5,0-4.6,2.1-4.6,4.6v2.8h-7.4V4
		c0-2.5-2.1-4.6-4.6-4.6C-304.6-0.6-306.7,1.5-306.7,4z M-302.1,2.6c1.1,0,1.5,0.9,1.5,1.5v9.2c0,0.5-0.2,1.6-1.5,1.6
		c-1.3,0-1.6-1-1.6-1.6V4C-303.7,3.5-303.2,2.6-302.1,2.6z M-285.4,2.6c1.3,0,1.4,0.9,1.4,1.5v9.2c0,0.5,0,1.6-1.4,1.6
		s-1.5-1-1.5-1.6V4C-286.9,3.5-286.7,2.6-285.4,2.6z M-268.8,2.6c1.2,0,1.4,0.9,1.4,1.5v9.2c0,0.5,0,1.6-1.4,1.6
		c-1.4,0-1.4-1-1.4-1.6V4C-270.2,3.5-270,2.6-268.8,2.6z M-252.2,2.6c1.3,0,1.7,0.9,1.7,1.5v9.2c0,0.5-0.2,1.6-1.7,1.6
		c-1.4,0-1.6-1.2-1.6-1.7V4C-253.7,3.5-253.4,2.6-252.2,2.6z M-312.7,9.7h6v3.5c0,2.5,2.1,4.6,4.6,4.6c2.5,0,4.6-2.1,4.6-4.6V9.7
		h7.4v3.5c0,2.5,2.1,4.6,4.6,4.6c2.5,0,4.6-2.1,4.6-4.6V9.7h7.4v3.5c0,2.5,2.1,4.6,4.6,4.6c2.5,0,4.6-2.1,4.6-4.6V9.7h7.4v3.5
		c0,2.5,2.1,4.6,4.6,4.6s4.6-2.1,4.6-4.6V9.7h6.2V22h-71.4V9.7z"/>
	<path id="Shape_1_" fill="#5642AB" d="M-254.6,33.6h-45v26.2h39.1c0.5-1.5,1.2-2.7,2.1-3.7c0.3-0.3,0.6-0.6,1-0.9
		c0.5-0.4,1.4-0.9,2.8-1.5V33.6z M-285.3,56.7h-11.2v-8.7h11.2V56.7z M-285.3,45h-11.2v-8.7h11.2V45z M-272,56.7h-10.2v-8.7h10.2
		V56.7z M-272,45h-10.2v-8.7l10.2,0V45z M-258.4,56.1l-0.6,0.6h-10v-8.7h11.2c0,4.8,0,7.2,0,7.3c0,0.1-0.1,0.1-0.3,0.3
		C-258.1,55.7-258.2,55.9-258.4,56.1z M-257.7,45h-11.2v-8.7l11.2,0V45z"/>
	<path id="Path-2" fill="#FF5E1C" d="M-248.5,53c-6.6,0-12,5.4-12,12c0,6.6,5.4,12,12,12c2.6,0,5.1-0.9,7-2.3l9.2,9.2
		c0.7,0.7,1.9,0.7,2.7,0c0.7-0.7,0.7-1.9,0-2.7l-9.2-9.2c1.4-2,2.3-4.4,2.3-7C-236.5,58.4-241.9,53-248.5,53L-248.5,53z
		 M-248.5,56.7c4.6,0,8.3,3.7,8.3,8.3c0,4.6-3.7,8.3-8.3,8.3c-4.6,0-8.3-3.7-8.3-8.3C-256.8,60.4-253.1,56.7-248.5,56.7L-248.5,56.7
		z"/>
</g>
</svg>
