<?xml version="1.0" encoding="utf-8"?>
<!-- Generator: Adobe Illustrator 18.0.0, SVG Export Plug-In . SVG Version: 6.00 Build 0)  -->
<!DOCTYPE svg PUBLIC "-//W3C//DTD SVG 1.1//EN" "http://www.w3.org/Graphics/SVG/1.1/DTD/svg11.dtd">
<svg version="1.1" id="Layer_1" xmlns="http://www.w3.org/2000/svg" xmlns:xlink="http://www.w3.org/1999/xlink" x="0px" y="0px"
	 viewBox="0 0 250 250" enable-background="new 0 0 250 250" xml:space="preserve">
<path id="Path" d="M192.1,38.3l-86.8,86.8l86.8,86.8c8.7,8.7,8.7,22.8,0,31.5c-8.7,8.7-22.8,8.7-31.5,0L57.9,140.8
	c-8.7-8.7-8.7-22.8,0-31.5L160.6,6.5c8.7-8.7,22.8-8.7,31.5,0C200.6,15.3,200.8,29.5,192.1,38.3z"/>
</svg>
