<?xml version="1.0" encoding="utf-8"?>
<!-- Generator: Adobe Illustrator 18.0.0, SVG Export Plug-In . SVG Version: 6.00 Build 0)  -->
<!DOCTYPE svg PUBLIC "-//W3C//DTD SVG 1.1//EN" "http://www.w3.org/Graphics/SVG/1.1/DTD/svg11.dtd">
<svg version="1.1" id="Layer_1" xmlns="http://www.w3.org/2000/svg" xmlns:xlink="http://www.w3.org/1999/xlink" x="0px" y="0px"
	 viewBox="-116 -116 250 250" enable-background="new -116 -116 250 250" xml:space="preserve">
<g id="noun_chef_1868519" transform="translate(1.000000, 1.000000)">
	<path id="Path_1_" d="M86.6-85.4c-5.7,0-11.3,1.1-16.5,3.3C56.6-103.8,33.2-117,8-117s-48.6,13.2-62.1,34.9
		c-5.2-2.2-10.8-3.3-16.5-3.3c-23.1,0.3-42.1,18.6-43.6,42.1S-99.3,1-76.4,4.4c0.3,0,0.6,0.1,0.9,0.1l2.7,77.1H88.9l2.8-77.1
		c0.3,0,0.5,0,0.8-0.1c22.8-3.4,39.3-24.1,37.8-47.7C128.7-66.8,109.7-85.2,86.6-85.4L86.6-85.4z"/>
	<path id="Path_2_" d="M-71.3,123.4c0.2,5.4,4.5,9.6,9.8,9.6H77.6c5.3,0,9.6-4.3,9.8-9.6l1-27.9H-72.3L-71.3,123.4z"/>
</g>
</svg>
