<?xml version="1.0" encoding="utf-8"?>
<!-- Generator: Adobe Illustrator 18.0.0, SVG Export Plug-In . SVG Version: 6.00 Build 0)  -->
<!DOCTYPE svg PUBLIC "-//W3C//DTD SVG 1.1//EN" "http://www.w3.org/Graphics/SVG/1.1/DTD/svg11.dtd">
<svg version="1.1" id="Layer_1" xmlns="http://www.w3.org/2000/svg" xmlns:xlink="http://www.w3.org/1999/xlink" x="0px" y="0px"
	 viewBox="-76.5 -76 250 250" enable-background="new -76.5 -76 250 250" xml:space="preserve">
<path id="Shape" d="M-14,49c0-17.2-14.1-31.3-31.3-31.3S-76.5,31.8-76.5,49s14.1,31.3,31.3,31.3S-14,66.2-14,49z M17.2,49
	c0,17.2,14.1,31.3,31.3,31.3c17.2,0,31.3-14.1,31.3-31.3c0-17.2-14.1-31.3-31.3-31.3S17.2,31.8,17.2,49z M111,49
	c0,17.2,14.1,31.3,31.3,31.3s31.2-14.1,31.2-31.3s-14.1-31.3-31.2-31.3S111,31.8,111,49z"/>
</svg>
