<?xml version="1.0" encoding="utf-8"?>
<!-- Generator: Adobe Illustrator 18.0.0, SVG Export Plug-In . SVG Version: 6.00 Build 0)  -->
<!DOCTYPE svg PUBLIC "-//W3C//DTD SVG 1.1//EN" "http://www.w3.org/Graphics/SVG/1.1/DTD/svg11.dtd">
<svg version="1.1" id="Layer_1" xmlns="http://www.w3.org/2000/svg" xmlns:xlink="http://www.w3.org/1999/xlink" x="0px" y="0px"
	 viewBox="-116 -116 250 250" enable-background="new -116 -116 250 250" xml:space="preserve">
<g>
	<rect x="96.5" y="-116" width="37.5" height="37.5"/>
	<path d="M59-78.5V-41H-41v-37.5h-37.5V-41h-25V96.5h25V134H-41V96.5H59V134h37.5V96.5h25V-41h-25v-37.5H59z M-66,21.5V-16h37.5
		v37.5H-66z M59,71.5H-41v-25H59V71.5z M84,21.5H46.5V-16H84V21.5z"/>
	<rect x="-116" y="-116" width="37.5" height="37.5"/>
</g>
</svg>
