<?xml version="1.0" encoding="utf-8"?>
<!-- Generator: Adobe Illustrator 18.0.0, SVG Export Plug-In . SVG Version: 6.00 Build 0)  -->
<!DOCTYPE svg PUBLIC "-//W3C//DTD SVG 1.1//EN" "http://www.w3.org/Graphics/SVG/1.1/DTD/svg11.dtd">
<svg version="1.1" id="Layer_1" xmlns="http://www.w3.org/2000/svg" xmlns:xlink="http://www.w3.org/1999/xlink" x="0px" y="0px"
	 viewBox="-157.1 38.9 250 250" enable-background="new -157.1 38.9 250 250" xml:space="preserve">
<title>A8CE2C9A-5AD4-4978-B6E1-4EC33EDA05AF-color</title>
<desc>Created with sketchtool.</desc>
<g id="Page-1">
	<g id="PART-1" transform="translate(-930.000000, -3472.000000)">
		<g id="Google_x2B_-Copy-2" transform="translate(881.000000, 3458.000000)">
			<path id="GooglePlus" d="M18.5,153.4v49.5c0,0,46.9-0.2,66-0.2c-10.3,32.2-26.5,49.5-66,49.5c-40.2,0-71.4-33.2-71.4-74.3
				s31.2-74.3,71.4-74.3c21.2,0,34.9,7.5,47.4,18.2c10-10.3,9.2-11.7,34.8-36.5C79,65.2,50.2,52.9,18.5,52.9
				c-67.4,0.3-122,56.2-122,125.1s54.6,124.9,122.2,124.9c100.8,0,125.4-89.8,117.2-149.6H18.5V153.4z"/>
		</g>
	</g>
</g>
</svg>
