<?xml version="1.0" encoding="utf-8"?>
<!-- Generator: Adobe Illustrator 18.0.0, SVG Export Plug-In . SVG Version: 6.00 Build 0)  -->
<!DOCTYPE svg PUBLIC "-//W3C//DTD SVG 1.1//EN" "http://www.w3.org/Graphics/SVG/1.1/DTD/svg11.dtd">
<svg version="1.1" id="Layer_1" xmlns="http://www.w3.org/2000/svg" xmlns:xlink="http://www.w3.org/1999/xlink" x="0px" y="0px"
	 viewBox="-116 -117 250 250" enable-background="new -116 -117 250 250" xml:space="preserve">
<g>
	<path d="M29.5-86.8l-58.3-10.9l-34.3-6.9l15.6,151.5c-7.2-5.8-16.5-9.3-26.5-9.3c-23.3,0-42.1,18.6-42.1,41.5
		c0,22.9,18.8,41.5,42.1,41.5c22.7,0,41.2-17.7,42-39.9h0.1l2.7-156.8l50.1,25L29.5-86.8z"/>
	<polygon points="-5.3,-27.7 -5.3,-2.1 134,-2.1 134,-24.6 	"/>
	<polygon points="-5.3,30.7 134,36.8 134,8.2 -5.3,11.2 	"/>
	<polygon points="-5.3,64 134,70.1 134,47.6 -5.3,44.5 	"/>
</g>
</svg>
