<?xml version="1.0" encoding="utf-8"?>
<!-- Generator: Adobe Illustrator 18.0.0, SVG Export Plug-In . SVG Version: 6.00 Build 0)  -->
<!DOCTYPE svg PUBLIC "-//W3C//DTD SVG 1.1//EN" "http://www.w3.org/Graphics/SVG/1.1/DTD/svg11.dtd">
<svg version="1.1" id="Layer_1" xmlns="http://www.w3.org/2000/svg" xmlns:xlink="http://www.w3.org/1999/xlink" x="0px" y="0px"
	 viewBox="-116 -116 250 250" enable-background="new -116 -116 250 250" xml:space="preserve">
<path id="Shape" d="M65.8-115.9L-47.8-116c-12.5,0-22.7,10.2-22.7,22.7v204.5c0,12.5,10.2,22.7,22.7,22.7H65.8
	c12.5,0,22.7-10.2,22.7-22.7V-93.3C88.5-105.8,78.3-115.9,65.8-115.9z M65.8,88.5H-47.8V-70.5H65.8V88.5z"/>
</svg>
