<?xml version="1.0" encoding="utf-8"?>
<!-- Generator: Adobe Illustrator 18.0.0, SVG Export Plug-In . SVG Version: 6.00 Build 0)  -->
<!DOCTYPE svg PUBLIC "-//W3C//DTD SVG 1.1//EN" "http://www.w3.org/Graphics/SVG/1.1/DTD/svg11.dtd">
<svg version="1.1" id="Layer_1" xmlns="http://www.w3.org/2000/svg" xmlns:xlink="http://www.w3.org/1999/xlink" x="0px" y="0px"
	 viewBox="159.4 128.2 30 30" enable-background="new 159.4 128.2 30 30" xml:space="preserve">
<g>
	<g>
		<defs>
			<path id="SVGID_1_" d="M189.1,140.4h-14.3v5.8h8.2c-0.8,3.7-4,5.8-8.2,5.8c-5,0-9.1-4-9.1-8.9s4-8.9,9.1-8.9c2.2,0,4.1,0.8,5.7,2
				l4.5-4.4c-2.7-2.3-6.2-3.8-10.1-3.8c-8.5,0-15.3,6.7-15.3,15s6.8,15,15.3,15c7.7,0,14.7-5.5,14.7-15
				C189.4,142.3,189.3,141.3,189.1,140.4z"/>
		</defs>
		<clipPath id="SVGID_2_">
			<use xlink:href="#SVGID_1_"  overflow="visible"/>
		</clipPath>
		<path clip-path="url(#SVGID_2_)" fill="#FBBC05" d="M158,152v-17.7l11.9,8.9L158,152z"/>
	</g>
	<g>
		<defs>
			<path id="SVGID_3_" d="M189.1,140.4h-14.3v5.8h8.2c-0.8,3.7-4,5.8-8.2,5.8c-5,0-9.1-4-9.1-8.9s4-8.9,9.1-8.9c2.2,0,4.1,0.8,5.7,2
				l4.5-4.4c-2.7-2.3-6.2-3.8-10.1-3.8c-8.5,0-15.3,6.7-15.3,15s6.8,15,15.3,15c7.7,0,14.7-5.5,14.7-15
				C189.4,142.3,189.3,141.3,189.1,140.4z"/>
		</defs>
		<clipPath id="SVGID_4_">
			<use xlink:href="#SVGID_3_"  overflow="visible"/>
		</clipPath>
		<path clip-path="url(#SVGID_4_)" fill="#EA4335" d="M158,134.3l11.9,8.9l4.9-4.2l16.7-2.7v-9.5H158V134.3z"/>
	</g>
	<g>
		<defs>
			<path id="SVGID_5_" d="M189.1,140.4h-14.3v5.8h8.2c-0.8,3.7-4,5.8-8.2,5.8c-5,0-9.1-4-9.1-8.9s4-8.9,9.1-8.9c2.2,0,4.1,0.8,5.7,2
				l4.5-4.4c-2.7-2.3-6.2-3.8-10.1-3.8c-8.5,0-15.3,6.7-15.3,15s6.8,15,15.3,15c7.7,0,14.7-5.5,14.7-15
				C189.4,142.3,189.3,141.3,189.1,140.4z"/>
		</defs>
		<clipPath id="SVGID_6_">
			<use xlink:href="#SVGID_5_"  overflow="visible"/>
		</clipPath>
		<path clip-path="url(#SVGID_6_)" fill="#34A853" d="M158,152l20.9-15.7l5.5,0.7l7-10.2v32.7H158V152z"/>
	</g>
	<g>
		<defs>
			<path id="SVGID_7_" d="M189.1,140.4h-14.3v5.8h8.2c-0.8,3.7-4,5.8-8.2,5.8c-5,0-9.1-4-9.1-8.9s4-8.9,9.1-8.9c2.2,0,4.1,0.8,5.7,2
				l4.5-4.4c-2.7-2.3-6.2-3.8-10.1-3.8c-8.5,0-15.3,6.7-15.3,15s6.8,15,15.3,15c7.7,0,14.7-5.5,14.7-15
				C189.4,142.3,189.3,141.3,189.1,140.4z"/>
		</defs>
		<clipPath id="SVGID_8_">
			<use xlink:href="#SVGID_7_"  overflow="visible"/>
		</clipPath>
		<path clip-path="url(#SVGID_8_)" fill="#4285F4" d="M191.5,159.5l-21.6-16.4l-2.8-2l24.4-6.8V159.5z"/>
	</g>
</g>
</svg>
